Data 200: Lab 4a
…
In this lab we explored popular baby names for the state of California. This data comes from California birth certificates and is available on the California Open Data Portal.

Obtain and familiarize yourself with the data

library(tidyverse)

This data is read in from a file called california-popular-baby-names.csv available online. We will save this data into an object called baby-names.

baby_names <- read_csv("http://csuci-data200.github.io/lectures/week-01/data/california-popular-baby-names.csv")

Let’s look at what is in our baby_names object.

baby_names

# A tibble: 3,203 × 5
    Year Sex     Rank Name      Count
   <dbl> <chr>  <dbl> <chr>     <dbl>
 1  1960 Female     1 SUSAN      3299
 2  1960 Female     2 MARY       3248
 3  1960 Female     3 KAREN      3156
 4  1960 Female     4 CYNTHIA    2982
 5  1960 Female     5 LISA       2839
 6  1960 Female     6 LINDA      2807
 7  1960 Female     7 DEBRA      2692
 8  1960 Female     8 PATRICIA*  2668
 9  1960 Female     9 DEBORAH    2490
10  1960 Female    10 SANDRA     2404
# ℹ 3,193 more rows
…
